_tcore/fp16_to_fp9.vcd
$date
	Mon Nov 10 18:19:42 2025
$end

$version
	Synopsys VCS version O-2018.09-SP2_Full64
$end

$timescale
	1s
$end

$comment Csum: 1 dcf985e8126012a2 $end


$scope module tb_fp16_to_fp9 $end
$var reg 16 ! fp16 [15:0] $end
$var wire 9 " fp9 [8:0] $end
$var wire 1 # invalid $end
$var wire 1 $ underflow $end
$var wire 1 % overflow $end
$var integer 32 & i $end
$var integer 32 ' error_count $end

$scope task initialize_test_cases $end
$upscope $end


$scope task check_result $end
$var integer 32 ( test_num $end
$var reg 1 ) pass $end
$upscope $end


$scope module uut $end
$var wire 16 * fp16 [15:0] $end
$var reg 9 + fp9 [8:0] $end
$var reg 1 , invalid $end
$var reg 1 - underflow $end
$var reg 1 . overflow $end
$var wire 1 / fp16_sng $end
$var wire 5 0 fp16_exp [4:0] $end
$var wire 10 1 fp16_sig [9:0] $end
$var reg 9 2 fp9_result [8:0] $end
$var reg 1 3 is_nan $end
$var reg 1 4 is_inf $end
$var reg 1 5 underflow_flag $end
$var reg 1 6 overflow_flag $end
$var reg 1 7 invalid_flag $end
$var reg 8 8 adjusted_exp [7:0] $end
$var reg 4 9 final_exp [3:0] $end
$var reg 4 : truncated_sig [3:0] $end
$var reg 1 ; exp_overflow $end
$var reg 1 < exp_underflow $end
$var reg 8 = shift_amount [7:0] $end
$var reg 24 > shifted_mantissa [23:0] $end
$upscope $end

$upscope $end

$enddefinitions $end

#0
$dumpvars
x)
0;
0<
0#
07
04
03
0%
06
x/
0$
05
0,
0.
0-
bxxxxxxxx 8
bxxxxxxxxxxxxxxxxxxxxxxxxxxxxxxxx (
b00000000000000000000000000000000 '
bxxxx 9
b0000000000000000 !
b000000000 "
b000000000 2
b00000000000000000000000000000000 &
b00000000 =
b000000000000000000000000 >
bxxxxx 0
bxxxxxxxxxx 1
bxxxx :
b0000000000000000 *
b000000000 +
$end
0/
b00000 0
b0000000000 1
#10
b00000000000000000000000000000000 (
1)
b00000000000000000000000000000001 &
b1000000000000000 !
b1000000000000000 *
1/
b100000000 2
b100000000 +
b100000000 "
#20
b00000000000000000000000000000001 (
b00000000000000000000000000000010 &
b0011110000000000 !
b0011110000000000 *
0/
b01111 0
b0111 9
b00000111 8
b1000 :
b001111000 2
b001111000 +
b001111000 "
#30
b00000000000000000000000000000010 (
b00000000000000000000000000000011 &
b1011110000000000 !
b1011110000000000 *
1/
b101111000 2
b101111000 +
b101111000 "
#40
b00000000000000000000000000000011 (
b00000000000000000000000000000100 &
b0111110000000000 !
b0111110000000000 *
0/
b11111 0
14
b011110000 2
b011110000 +
b011110000 "
#50
b00000000000000000000000000000100 (
b00000000000000000000000000000101 &
b1111110000000000 !
b1111110000000000 *
1/
b111110000 2
b111110000 +
b111110000 "
#60
b00000000000000000000000000000101 (
b00000000000000000000000000000110 &
b0111111111111111 !
b0111111111111111 *
0/
b1111111111 1
17
04
13
b011110001 2
1,
1#
b011110001 +
b011110001 "
#70
b00000000000000000000000000000110 (
b00000000000000000000000000000111 &
b0111101111111111 !
b0111101111111111 *
b11110 0
b0110 9
b00010110 8
b1111 :
1;
07
16
03
b011110000 2
1.
1%
0,
0#
b011110000 +
b011110000 "
#80
b00000000000000000000000000000111 (
b00000000000000000000000000001000 &
b0000000000000001 !
b0000000000000001 *
b00000 0
b0000000001 1
0;
06
15
b000000000 2
0.
0%
1-
1$
b000000000 +
b000000000 "
#90
b00000000000000000000000000001000 (
b00000000000000000000000000001001 &
b0000001111111111 !
b0000001111111111 *
b1111111111 1
05
b000000001 2
0-
0$
b000000001 +
b000000001 "
#100
b00000000000000000000000000001001 (
b00000000000000000000000000001010 &
